{
  "base_experience": 123123123,
  "height": 123,
  "id": 123123123,
  "name": "testpokemon",
  "order": 123123123,
  "sprites": {
    "back_default": "https://raw.githubusercontent.com/PokeAPI/sprites/master/sprites/pokemon/back/1.png",
    "back_female": null,
    "back_shiny": "https://raw.githubusercontent.com/PokeAPI/sprites/master/sprites/pokemon/back/shiny/1.png",
    "back_shiny_female": null,
    "front_default": "https://raw.githubusercontent.com/PokeAPI/sprites/master/sprites/pokemon/123123123.png",
    "front_female": null,
    "front_shiny": "https://raw.githubusercontent.com/PokeAPI/sprites/master/sprites/pokemon/shiny/1.png",
    "front_shiny_female": null
  },
  "types": [
    {
      "slot": 2,
      "type": {
        "name": "test",
        "url": "https://pokeapi.co/api/v2/type/4/"
      }
    },
    {
      "slot": 1,
      "type": {
        "name": "testing",
        "url": "https://pokeapi.co/api/v2/type/12/"
      }
    }
  ],
  "weight": 123
}
